Data Analysis and Visualisation with R
…
A number of functions and packages come already installed in what is generally referred to as R base (and you can actually see what’s in it by typing base:: in your console, and let the auto-complete suggest you the full list of functions … ). However, most of the things we’ll do in this workshop need further libraries. To install them, make sure you have an Internet connection. Then manually run the code in the chunk below. If you just render the document, this will be skipped - however, if this is the first time you run this, make sure to manually run the code chunk below. We do this because you only need to install these packages once, not every time you run this file. Either knit the chunk using the little green “play” arrow to the right of the chunk area, or copy and paste the text into the console window.

4.1 Load Libraries

Once you installed your libraries, each time your run this document you must load them. If we do not load them, R will not be able to find the functions contained in these libraries. The tidyverse includes ggplot2 (for data visualisation) and other libraries such as dplyr (for data manipulation). We also load the socviz and gapminder libraries.

Notice that here an option is set: include=FALSE. This tells R to run this code but not to include the output in the final document.

When you click the Render button a document will be generated that includes both content as well as the output of any embedded R code chunks within the document. You can embed an R code chunk like this:

Show the code

gapminder::gapminder

# A tibble: 1,704 × 6
   country     continent  year lifeExp      pop gdpPercap
   <fct>       <fct>     <int>   <dbl>    <int>     <dbl>
 1 Afghanistan Asia       1952    28.8  8425333      779.
 2 Afghanistan Asia       1957    30.3  9240934      821.
 3 Afghanistan Asia       1962    32.0 10267083      853.
 4 Afghanistan Asia       1967    34.0 11537966      836.
 5 Afghanistan Asia       1972    36.1 13079460      740.
 6 Afghanistan Asia       1977    38.4 14880372      786.
 7 Afghanistan Asia       1982    39.9 12881816      978.
 8 Afghanistan Asia       1987    40.8 13867957      852.
 9 Afghanistan Asia       1992    41.7 16317921      649.
10 Afghanistan Asia       1997    41.8 22227415      635.
# ℹ 1,694 more rows
…
    dplyr::summarise(
      n_votes = n(),
      n_yes = sum(vote == "yes", na.rm = TRUE)
    ) |>
    dplyr::filter(n_votes >= min_tot_votes) |> # filter by at least this many votes
    dplyr::mutate(pct_yes = n_yes / n_votes) |>
    dplyr::arrange(dplyr::desc(pct_yes)) # arrange by pct_yes
}
# test
un_votes |>
  group_by(country) |>
  summarise_votes() |> # test, we should get the same answer as above ...
  ungroup()

# A tibble: 199 × 4
   country             n_votes n_yes pct_yes
   <chr>                 <int> <int>   <dbl>
 1 Seychelles             2109  2060   0.977
 2 São Tomé & Príncipe    2686  2584   0.962
 3 Cape Verde             3941  3762   0.955
 4 Timor-Leste            1387  1320   0.952
 5 Guinea-Bissau          3595  3419   0.951
 6 Djibouti               4073  3829   0.940
 7 Mozambique             4152  3894   0.938
 8 Suriname               4049  3786   0.935
 9 Maldives               4644  4330   0.932
10 Belize                 3115  2904   0.932
# ℹ 189 more rows
…
There are way too many values here. We need to filter on the string to get just the pattern of interest, namely Committee on.

Show the code

plenary_docs |>
  dplyr::filter(
    grepl(
      pattern = "Committee on ",
      x = document_creator_organization
    )) |>
  dplyr::group_by(document_creator_organization) |>
  dplyr::summarise(count = n()) |>
  dplyr::arrange(dplyr::desc(count))

# A tibble: 64 × 2
   document_creator_organization                               count
   <chr>                                                       <int>
 1 Committee on Budgetary Control                                381
 2 Committee on Economic and Monetary Affairs                    180
 3 Committee on the Environment, Public Health and Food Safety   175
 4 Committee on Civil Liberties, Justice and Home Affairs        154
 5 Committee on Foreign Affairs                                  124
 6 Committee on Legal Affairs                                    124
 7 Committee on Budgets                                          103
 8 Committee on International Trade                               91
 9 Committee on Transport and Tourism                             79
10 Committee on Industry, Research and Energy                     72
# ℹ 54 more rows
…
plenary_docs |>
  dplyr::filter(grepl(
    pattern = "Committee on ",
    x = document_creator_organization
  )) |>
  tidyr::separate_longer_delim(cols = document_creator_organization, delim = ";") |>
  dplyr::mutate(
    document_creator_organization = trimws(document_creator_organization) ) |>
  dplyr::select(document_identifier, document_creator_organization) %>% 
  dplyr::group_by(document_identifier) |>
  dplyr::summarise(committee_count = n()) |>
  dplyr::arrange(dplyr::desc(committee_count))

# A tibble: 1,975 × 2
   document_identifier committee_count
   <chr>                         <int>
 1 A-9-2021-0255                     3
 2 A-9-2022-0248                     3
 3 A-8-2019-0068                     2
 4 A-8-2019-0087                     2
 5 A-8-2019-0160                     2
 6 A-8-2019-0173                     2
 7 A-8-2019-0175                     2
 8 A-9-2020-0107                     2
 9 A-9-2020-0117                     2
10 A-9-2020-0173                     2
# ℹ 1,965 more rows
…
